{
	"info": {
		"_postman_id": "a5fb7062-e985-4c78-866d-18e78e12efa4",
		"name": "Directory",
		"schema": "https://schema.getpostman.com/json/collection/v2.1.0/collection.json"
	},
	"item": [
		{
			"name": "delateById",
			"request": {
				"method": "DELETE",
				"header": [],
				"url": {
					"raw": "http://localhost:8080/colaborador/1",
					"protocol": "http",
					"host": [
						"localhost"
					],
					"port": "8080",
					"path": [
						"colaborador",
						"1"
					]
				}
			},
			"response": []
		},
		{
			"name": "getByWorkAddress",
			"request": {
				"method": "GET",
				"header": [],
				"url": {
					"raw": "http://localhost:8080/colaborador/lugar/Av Insurgentes sur 1388,03230,Mexico Df",
					"protocol": "http",
					"host": [
						"localhost"
					],
					"port": "8080",
					"path": [
						"colaborador",
						"lugar",
						"Av Insurgentes sur 1388,03230,Mexico Df"
					]
				}
			},
			"response": []
		},
		{
			"name": "getByArea",
			"request": {
				"method": "GET",
				"header": [],
				"url": {
					"raw": "http://localhost:8080/colaborador/area/It",
					"protocol": "http",
					"host": [
						"localhost"
					],
					"port": "8080",
					"path": [
						"colaborador",
						"area",
						"It"
					]
				}
			},
			"response": []
		},
		{
			"name": "getById",
			"request": {
				"method": "GET",
				"header": [],
				"url": {
					"raw": "http://localhost:8080/colaborador/1",
					"protocol": "http",
					"host": [
						"localhost"
					],
					"port": "8080",
					"path": [
						"colaborador",
						"1"
					]
				}
			},
			"response": []
		},
		{
			"name": "alta/modificacion",
			"request": {
				"method": "POST",
				"header": [],
				"body": {
					"mode": "raw",
					"raw": "{  \n\t\n    \"name\": \"Rene Valentin\",  \n    \"alias\": \"Rene_V\",  \n    \"title\": \"Cordinador\",\n     \"email\": \"Rene.Valentin@ids.com.mx\", \n      \"mobile\": \"5532648519\", \n       \"phone\": \"5532648519\", \n        \"office\": \"Ids insurgentes\",\n         \"department\": \"It\",\n         \"w_a\": \"Av Insurgentes sur 1388,03230,Mexico Df\"\n}  ",
					"options": {
						"raw": {
							"language": "json"
						}
					}
				},
				"url": {
					"raw": "http://localhost:8080/colaborador",
					"protocol": "http",
					"host": [
						"localhost"
					],
					"port": "8080",
					"path": [
						"colaborador"
					]
				}
			},
			"response": []
		},
		{
			"name": "get_all",
			"request": {
				"method": "GET",
				"header": [],
				"url": {
					"raw": "http://localhost:8080/colaborador",
					"protocol": "http",
					"host": [
						"localhost"
					],
					"port": "8080",
					"path": [
						"colaborador"
					]
				}
			},
			"response": []
		}
	],
	"protocolProfileBehavior": {}
}